{"data":[{"id":"5000ec8c-f58e-4ec7-a49d-f4cc05b1cda9","externalId":"15444","leagueId":null,"homeTeamId":null,"awayTeamId":null,"sport":"nba","season":null,"round":null,"name":"Indiana Pacers @ New York Knicks","venue":"Madison Square Garden","startTime":"2026-01-14T22:25:28.640Z","status":"scheduled","statusDetail":"Finished","elapsedTime":null,"homeScore":109,"awayScore":114,"thumbnailUrl":null,"hasMarket":true,"isFeatured":false,"createdAt":"2026-01-14T19:18:50.667Z","updatedAt":"2026-01-14T19:25:32.141Z"},{"id":"0494940c-994d-4c89-b356-8af22078c5e6","externalId":"15445","leagueId":null,"homeTeamId":null,"awayTeamId":null,"sport":"nba","season":null,"round":null,"name":"New York Knicks @ Indiana Pacers","venue":"Gainbridge Fieldhouse","startTime":"2026-01-15T01:25:28.640Z","status":"scheduled","statusDetail":"Finished","elapsedTime":null,"homeScore":100,"awayScore":106,"thumbnailUrl":null,"hasMarket":true,"isFeatured":false,"createdAt":"2026-01-14T19:18:50.667Z","updatedAt":"2026-01-14T19:25:29.986Z"},{"id":"544c41a7-35d8-445f-8b67-461dca469242","externalId":"15446","leagueId":null,"homeTeamId":null,"awayTeamId":null,"sport":"nba","season":null,"round":null,"name":"New York Knicks @ Indiana Pacers","venue":"Gainbridge Fieldhouse","startTime":"2026-01-15T04:19:42.154Z","status":"scheduled","statusDetail":"Finished","elapsedTime":null,"homeScore":130,"awayScore":121,"thumbnailUrl":null,"hasMarket":true,"isFeatured":false,"createdAt":"2026-01-14T19:18:50.667Z","updatedAt":"2026-01-14T19:24:59.637Z"},{"id":"3f206b2d-3792-4c29-8709-21ce98e50a87","externalId":"15447","leagueId":null,"homeTeamId":null,"awayTeamId":null,"sport":"nba","season":null,"round":null,"name":"Indiana Pacers @ New York Knicks","venue":"Madison Square Garden","startTime":"2026-01-15T07:19:42.154Z","status":"scheduled","statusDetail":"Finished","elapsedTime":null,"homeScore":111,"awayScore":94,"thumbnailUrl":null,"hasMarket":true,"isFeatured":false,"createdAt":"2026-01-14T19:18:50.667Z","updatedAt":"2026-01-14T19:25:00.986Z"},{"id":"e5c70e75-1eca-41b4-a910-a163ad998f4b","externalId":"15448","leagueId":null,"homeTeamId":null,"awayTeamId":null,"sport":"nba","season":null,"round":null,"name":"New York Knicks @ Indiana Pacers","venue":"Gainbridge Fieldhouse","startTime":"2026-01-15T10:19:42.154Z","status":"scheduled","statusDetail":"Finished","elapsedTime":null,"homeScore":125,"awayScore":108,"thumbnailUrl":null,"hasMarket":true,"isFeatured":false,"createdAt":"2026-01-14T19:18:50.667Z","updatedAt":"2026-01-14T19:25:02.220Z"}],"total":20,"page":1,"limit":5,"totalPages":4}